<svg width="132" height="132" viewBox="0 0 132 132" fill="none" xmlns="http://www.w3.org/2000/svg">
<path fill-rule="evenodd" clip-rule="evenodd" d="M121 38.5L66 11L11 38.5V93.5L66 121L121 93.5V38.5Z" stroke="#2F2F2F" stroke-width="6" stroke-linejoin="round"/>
<path d="M11 38.5L66 66" stroke="#2F2F2F" stroke-width="6" stroke-linecap="round" stroke-linejoin="round"/>
<path d="M66 121V66" stroke="#2F2F2F" stroke-width="6" stroke-linecap="round" stroke-linejoin="round"/>
<path d="M121 38.5L66 66" stroke="#2F2F2F" stroke-width="6" stroke-linecap="round" stroke-linejoin="round"/>
<path d="M93.5 24.75L38.5 52.25" stroke="#2F2F2F" stroke-width="6" stroke-linecap="round" stroke-linejoin="round"/>
</svg>
