<svg width="70" height="70" viewBox="0 0 70 70" fill="none" xmlns="http://www.w3.org/2000/svg">
<path d="M12.3252 7.96492H12.8252V7.46492C12.8252 7.29855 12.8177 6.99796 12.8083 6.61972C12.8043 6.45815 12.7999 6.28241 12.7956 6.0969C12.7811 5.46973 12.7671 4.71581 12.7685 3.97109C12.7699 3.22428 12.7869 2.49644 12.8331 1.9188C12.8563 1.62914 12.8861 1.38847 12.922 1.20699C12.9516 1.05722 12.9783 0.988069 12.9863 0.967265C12.9869 0.965855 12.9873 0.964667 12.9877 0.963691C12.9901 0.961169 12.9928 0.958372 12.9957 0.955294C13.0148 0.935374 13.0399 0.909969 13.0671 0.882988C13.0941 0.856242 13.1214 0.829571 13.1446 0.807454L13.1741 0.7795L13.1838 0.770616C13.1847 0.769754 13.1854 0.769085 13.186 0.768591C13.1865 0.768162 13.1868 0.767866 13.187 0.767691C13.187 0.767689 13.187 0.767687 13.187 0.767684C13.1875 0.767229 13.1894 0.765646 13.193 0.762643L13.209 0.749465L13.2534 0.713513C13.2654 0.703864 13.2788 0.693202 13.2914 0.683105C13.3071 0.670487 13.3218 0.658751 13.3314 0.650975L13.3647 0.625H68.6727V63.4337C68.5237 63.7622 68.409 64.1293 68.3047 64.4631C68.2958 64.4918 68.2869 64.5202 68.2781 64.5483C68.1486 64.9612 68.0293 65.3231 67.8701 65.6172C66.647 67.8767 65.309 68.3504 64.039 68.8C63.6739 68.9293 63.3144 69.0566 62.9648 69.2238H6.7344C6.3924 69.0601 6.03742 68.933 5.67523 68.8034C4.39834 68.3462 3.03184 67.857 1.82842 65.621C1.6664 65.32 1.55406 64.9638 1.42872 64.5532L1.41446 64.5064C1.31022 64.1645 1.19363 63.7822 1.02734 63.4327V17.214L1.11772 17.0959C1.16742 17.0347 1.20487 16.9837 1.20943 16.9775L1.20989 16.9768C1.21059 16.9759 1.21186 16.9742 1.21877 16.9666C1.22767 16.957 1.24328 16.9407 1.27318 16.9107L1.27328 16.9106C1.28319 16.9007 1.33142 16.8626 1.45755 16.8177C1.57792 16.7748 1.73801 16.7365 1.93734 16.7051C2.33623 16.6422 2.83917 16.6146 3.38609 16.6078C3.93006 16.6011 4.50074 16.615 5.03169 16.6309C5.12921 16.6339 5.22573 16.6369 5.32064 16.6398C5.73661 16.6528 6.12178 16.6648 6.42582 16.6648H6.92582V16.1648C6.92582 15.4104 6.909 14.5999 6.89188 13.775C6.85658 12.0746 6.82002 10.3134 6.92698 8.85771C6.94678 8.58845 7.00671 8.4266 7.07062 8.3263C7.13091 8.23169 7.21321 8.16237 7.33638 8.10799C7.62191 7.9819 8.0534 7.96015 8.70228 7.96364C9.53829 7.96814 10.376 7.96702 11.2116 7.96591C11.5833 7.96541 11.9546 7.96492 12.3252 7.96492Z" fill="#201E22" stroke="#201E22"/>
<path d="M3.64337 19.3845H5.92673V60.752C5.92673 62.0952 6.77377 62.9267 7.76861 62.9256C8.76231 62.9246 9.60942 62.0927 9.60942 60.752V60.7518L9.59227 10.6847H11.8261V31.5259C11.8261 32.8652 12.6732 33.6974 13.6663 33.6996C14.1426 33.7007 14.6136 33.5027 14.9609 33.1178C15.3091 32.7318 15.5088 32.1867 15.5088 31.5259L15.5081 3.34424H65.9915V61.9754C65.9915 63.4138 65.547 64.5355 64.7973 65.2958C64.0483 66.0554 62.9455 66.5043 61.5314 66.5043C60.5026 66.5047 58.2912 66.5093 55.3556 66.5153C50.3121 66.5256 43.1309 66.5404 36.1362 66.546C30.5084 66.5505 25.0001 66.5491 20.8187 66.5348C18.7279 66.5276 16.9699 66.5172 15.695 66.5027C15.1767 66.4968 14.7393 66.4902 14.3924 66.4829C15.0611 65.3602 15.5088 63.8692 15.5088 62.2472V44.3038C15.5088 43.6493 15.3316 43.1175 15.0029 42.7377C14.6729 42.3562 14.228 42.1729 13.7861 42.1524C12.934 42.1128 12.0123 42.6876 11.8535 43.6931L11.8474 43.7315L11.8473 43.7704L11.8261 59.7997V59.8003C11.8261 59.9589 11.8272 60.1208 11.8283 60.2853C11.8357 61.4243 11.844 62.6857 11.505 63.7988C11.3151 64.4222 11.0218 64.974 10.5736 65.4144C10.1279 65.8523 9.50344 66.2056 8.60888 66.3944C7.16809 66.6984 5.96024 66.2882 5.10487 65.4755C4.24006 64.6539 3.7104 63.3944 3.7104 61.9754L3.7104 61.9746L3.64337 19.3845Z" fill="#FCFDFE" stroke="#201E22"/>
<path d="M19.2598 52.5954V27.0396C19.2598 26.5362 19.3719 26.2844 19.503 26.1514C19.6326 26.02 19.8768 25.9077 20.3694 25.9077H40.4804C40.9728 25.9077 41.2169 26.02 41.3465 26.1515C41.4776 26.2845 41.5897 26.5364 41.5897 27.0396V52.5954C41.5897 53.0972 41.4775 53.3494 41.3459 53.4828C41.2157 53.6148 40.9712 53.7272 40.4804 53.7272H20.3694C19.8773 53.7272 19.633 53.6148 19.5032 53.4833C19.3719 53.3502 19.2598 53.0983 19.2598 52.5954Z" fill="#201E22" stroke="#201E22"/>
<path d="M19.2598 19.9711V10.7275C19.2598 10.2241 19.3719 9.97235 19.503 9.83943C19.6326 9.70801 19.8769 9.59571 20.3694 9.59571H20.448H20.5266H20.6051H20.6837H20.7622H20.8408H20.9194H20.9979H21.0765H21.155H21.2336H21.3121H21.3907H21.4693H21.5478H21.6264H21.7049H21.7835H21.8621H21.9406H22.0192H22.0977H22.1763H22.2548H22.3334H22.412H22.4905H22.5691H22.6476H22.7262H22.8048H22.8833H22.9619H23.0404H23.119H23.1975H23.2761H23.3547H23.4332H23.5118H23.5903H23.6689H23.7475H23.826H23.9046H23.9831H24.0617H24.1402H24.2188H24.2974H24.3759H24.4545H24.533H24.6116H24.6902H24.7687H24.8473H24.9258H25.0044H25.0829H25.1615H25.2401H25.3186H25.3972H25.4757H25.5543H25.6329H25.7114H25.79H25.8685H25.9471H26.0256H26.1042H26.1828H26.2613H26.3399H26.4184H26.497H26.5755H26.6541H26.7327H26.8112H26.8898H26.9683H27.0469H27.1255H27.204H27.2826H27.3611H27.4397H27.5182H27.5968H27.6754H27.7539H27.8325H27.911H27.9896H28.0682H28.1467H28.2253H28.3038H28.3824H28.4609H28.5395H28.6181H28.6966H28.7752H28.8537H28.9323H29.0108H29.0894H29.168H29.2465H29.3251H29.4036H29.4822H29.5608H29.6393H29.7179H29.7964H29.875H29.9535H30.0321H30.1107H30.1892H30.2678H30.3463H30.4249H30.5035H30.582H30.6606H30.7391H30.8177H30.8962H30.9748H31.0534H31.1319H31.2105H31.289H31.3676H31.4461H31.5247H31.6033H31.6818H31.7604H31.8389H31.9175H31.9961H32.0746H32.1532H32.2317H32.3103H32.3888H32.4674H32.546H32.6245H32.7031H32.7816H32.8602H32.9387H33.0173H33.0959H33.1744H33.253H33.3315H33.4101H33.4887H33.5672H33.6458H33.7243H33.8029H33.8814H33.96H34.0386H34.1171H34.1957H34.2742H34.3528H34.4313H34.5099H34.5885H34.667H34.7456H34.8241H34.9027H34.9813H35.0598H35.1384H35.2169H35.2955H35.374H35.4526H35.5312H35.6097H35.6883H35.7668H35.8454H35.924H36.0025H36.0811H36.1596H36.2382H36.3167H36.3953H36.4739H36.5524H36.631H36.7095H36.7881H36.8666H36.9452H37.0238H37.1023H37.1809H37.2594H37.338H37.4165H37.4951H37.5737H37.6522H37.7308H37.8093H37.8879H37.9665H38.045H38.1236H38.2021H38.2807H38.3592H38.4378H38.5164H38.5949H38.6735H38.752H38.8306H38.9091H38.9877H39.0663H39.1448H39.2234H39.3019H39.3805H39.4591H39.5376H39.6162H39.6947H39.7733H39.8518H39.9304H40.009H40.0875H40.1661H40.2446H40.3232H40.4018H40.4803H40.5589H40.6374H40.716H40.7945H40.8731H40.9517H41.0302H41.1088H41.1873H41.2659H41.3444H41.423H41.5016H41.5801H41.6587H41.7372H41.8158H41.8944H41.9729H42.0515H42.13H42.2086H42.2871H42.3657H42.4443H42.5228H42.6014H42.6799H42.7585H42.837H42.9156H42.9942H43.0727H43.1513H43.2298H43.3084H43.3869H43.4655H43.5441H43.6226H43.7012H43.7797H43.8583H43.9369H44.0154H44.094H44.1725H44.2511H44.3296H44.4082H44.4868H44.5653H44.6439H44.7224H44.801H44.8795H44.9581H45.0367H45.1152H45.1938H45.2723H45.3509H45.4295H45.508H45.5866H45.6651H45.7437H45.8222H45.9008H45.9794H46.0579H46.1365H46.215H46.2936H46.3722H46.4507H46.5293H46.6078H46.6864H46.7649H46.8435H46.9221H47.0006H47.0792H47.1577H47.2363H47.3148H47.3934H47.472H47.5505H47.6291H47.7076H47.7862H47.8648H47.9433H48.0219H48.1004H48.179H48.2575H48.3361H48.4147H48.4932H48.5718H48.6503H48.7289H48.8074H48.886H48.9646H49.0431H49.1217H49.2002H49.2788H49.3574H49.4359H49.5145H49.593H49.6716H49.7501H49.8287H49.9073H49.9858H50.0644H50.1429H50.2215H50.3H50.3786H50.4572H50.5357H50.6143H50.6928H50.7714H50.85H50.9285H51.0071H51.0856H51.1642H51.2427H51.3213H51.3999H51.4784H51.557H51.6355H51.7141H51.7927H51.8712H51.9498H52.0283H52.1069H52.1854H52.264H52.3426H52.4211H52.4997H52.5782H52.6568H52.7353H52.8139H52.8925H52.971H53.0496H53.1281H53.2067H53.2853H53.3638H53.4424H53.5209H53.5995H53.678H53.7566H53.8352H53.9137H53.9923H54.0708H54.1494H54.228H54.3065H54.3851H54.4636H54.5422H54.6207H54.6993H54.7779H54.8564H54.935H55.0135H55.0921H55.1706H55.2492H55.3278H55.4063H55.4849H55.5634H55.642H55.7206H55.7991H55.8777H55.9562H56.0348H56.1133H56.1919H56.2705H56.349H56.4276H56.5061H56.5847H56.6633H56.7418H56.8204H56.8989H56.9775H57.056H57.1346H57.2132H57.2917H57.3703H57.4488H57.5274H57.606H57.6845H57.7631H57.8416H57.9202H57.9987H58.0773H58.1559H58.2344H58.313H58.3915H58.4701H58.5487H58.6272H58.7058H58.7843H58.8629H58.9414H59.02H59.0986H59.1771H59.2557H59.3342H59.4128H59.4914H59.5699H59.6485H59.727H59.8056H59.8841H59.9627H60.0413H60.1198H60.1984H60.2769H60.3555H60.4341H60.5126H60.5912L60.6029 9.59571C60.8902 9.5957 61.1371 9.5957 61.3599 9.61716C61.5849 9.63884 61.7465 9.67963 61.8635 9.73975C61.9687 9.7938 62.0502 9.86925 62.1128 9.99785C62.1808 10.1374 62.2372 10.3629 62.2372 10.7275V19.9711C62.2372 20.4731 62.1249 20.7209 61.9904 20.8531C61.8538 20.9873 61.592 21.103 61.0606 21.103H20.3694C19.8773 21.103 19.633 20.9907 19.5032 20.8591C19.3719 20.726 19.2598 20.4741 19.2598 19.9711Z" fill="#201E22" stroke="#201E22"/>
<path d="M38.9092 51.0081H21.9439L21.9434 28.6284H38.9087L38.9092 51.0081Z" fill="#FCFDFE" stroke="#201E22"/>
<path d="M59.5564 18.3828H21.9439L21.9434 12.3154H59.5558L59.5564 18.3828Z" fill="#FCFDFE" stroke="#201E22"/>
<path d="M61.1311 60.2527H20.373C19.9235 60.2527 19.6394 60.1167 19.4731 59.9618C19.3049 59.8051 19.225 59.6006 19.2266 59.3965C19.2295 59.0225 19.5281 58.5327 20.373 58.5327H61.1311C61.5769 58.5327 61.8618 58.6683 62.0301 58.8244C62.2006 58.9824 62.2821 59.1883 62.2819 59.3921C62.2817 59.596 62.1996 59.8024 62.0285 59.9609C61.8597 60.1173 61.5749 60.2527 61.1311 60.2527Z" fill="#201E22" stroke="#201E22"/>
<path d="M61.1306 53.7262H47.4554C47.0059 53.7262 46.7216 53.5903 46.5546 53.435C46.3855 53.2778 46.3044 53.0723 46.3047 52.867C46.3052 52.4893 46.6 52.0063 47.4217 52.0063H61.1306C61.5765 52.0063 61.8613 52.1419 62.0297 52.298C62.2002 52.4561 62.2817 52.6619 62.2815 52.8657C62.2813 53.0696 62.1992 53.2759 62.0281 53.4344C61.8592 53.5909 61.5745 53.7262 61.1306 53.7262Z" fill="#201E22" stroke="#201E22"/>
<path d="M61.1303 27.6277H47.4551C47.0055 27.6277 46.7214 27.4917 46.5551 27.3368C46.387 27.1801 46.307 26.9756 46.3086 26.7715C46.3115 26.3975 46.6101 25.9077 47.4551 25.9077H61.1303C61.5761 25.9077 61.861 26.0433 62.0294 26.1994C62.1999 26.3574 62.2814 26.5633 62.2812 26.7671C62.2809 26.971 62.1989 27.1774 62.0278 27.3359C61.8589 27.4923 61.5742 27.6277 61.1303 27.6277Z" fill="#201E22" stroke="#201E22"/>
<path d="M61.1303 47.2019H47.4551C47.0055 47.2019 46.7214 47.0659 46.5551 46.911C46.387 46.7544 46.307 46.5499 46.3086 46.3458C46.3115 45.9718 46.6101 45.4819 47.4551 45.4819H61.1303C61.5761 45.4819 61.861 45.6175 62.0294 45.7736C62.1999 45.9317 62.2814 46.1375 62.2812 46.3413C62.2809 46.5453 62.1989 46.7516 62.0278 46.9101C61.8589 47.0665 61.5742 47.2019 61.1303 47.2019Z" fill="#201E22" stroke="#201E22"/>
<path d="M61.1263 40.6779H47.451C47.0013 40.6779 46.7175 40.5419 46.5519 40.3874C46.3846 40.2313 46.3059 40.0278 46.3087 39.8249C46.3138 39.4544 46.6164 38.958 47.4844 38.958H61.1263C61.5721 38.958 61.8569 39.0936 62.0253 39.2497C62.1958 39.4077 62.2773 39.6136 62.2771 39.8174C62.2769 40.0213 62.1948 40.2277 62.0237 40.3862C61.8548 40.5426 61.5701 40.6779 61.1263 40.6779Z" fill="#201E22" stroke="#201E22"/>
<path d="M61.13 34.1521H47.4548C47.0049 34.1521 46.7214 34.016 46.5566 33.8619C46.3901 33.7062 46.3125 33.5038 46.3166 33.3021C46.3239 32.935 46.6307 32.4321 47.5217 32.4321H61.13C61.5758 32.4321 61.8607 32.5677 62.0291 32.7238C62.1996 32.8819 62.2811 33.0877 62.2809 33.2915C62.2806 33.4955 62.1986 33.7018 62.0275 33.8603C61.8586 34.0167 61.5739 34.1521 61.13 34.1521Z" fill="#201E22" stroke="#201E22"/>
<path d="M13.462 37.1252L13.462 37.1252C13.159 37.245 13.0066 37.4276 12.9364 37.6068C12.8624 37.7955 12.8651 38.0192 12.9444 38.2282C13.0236 38.4371 13.1702 38.6069 13.3522 38.6999C13.5252 38.7883 13.7635 38.8249 14.0744 38.7135L13.462 37.1252ZM13.462 37.1252C13.7839 36.9978 13.9955 37.0419 14.1333 37.1203M13.462 37.1252L14.1333 37.1203M14.1333 37.1203C14.2861 37.2073 14.4191 37.3782 14.4906 37.6115M14.1333 37.1203L14.4906 37.6115M14.4906 37.6115C14.645 38.1149 14.4552 38.5773 14.0745 38.7135L14.4906 37.6115Z" fill="#201E22" stroke="#201E22"/>
</svg>
